EESchema Schematic File Version 4
EELAYER 30 0
EELAYER END
$Descr A4 11693 8268
encoding utf-8
Sheet 1 1
Title ""
Date ""
Rev ""
Comp ""
Comment1 ""
Comment2 ""
Comment3 ""
Comment4 ""
$EndDescr
$Comp
L SamacSys:DP83848KSQ_NOPB IC?
U 1 1 5F00DC80
P 5100 3300
F 0 "IC?" H 7144 3196 50  0000 L CNN
F 1 "DP83848KSQ_NOPB" H 7144 3105 50  0000 L CNN
F 2 "QFN50P600X600X80-41N-D" H 6950 4400 50  0001 L CNN
F 3 "http://www.ti.com/lit/gpn/dp83848k" H 6950 4300 50  0001 L CNN
F 4 "Mini-LS, industrial temperature, single port 10/100 Mb/s PHYTER Ethernet physical layer transceiver" H 6950 4200 50  0001 L CNN "Description"
F 5 "0.8" H 6950 4100 50  0001 L CNN "Height"
F 6 "926-DP83848KSQ/NOPB" H 6950 4000 50  0001 L CNN "Mouser Part Number"
F 7 "https://www.mouser.co.uk/ProductDetail/Texas-Instruments/DP83848KSQ-NOPB?qs=7X5t%252BdzoRHC67BNmk0LA1w%3D%3D" H 6950 3900 50  0001 L CNN "Mouser Price/Stock"
F 8 "Texas Instruments" H 6950 3800 50  0001 L CNN "Manufacturer_Name"
F 9 "DP83848KSQ/NOPB" H 6950 3700 50  0001 L CNN "Manufacturer_Part_Number"
	1    5100 3300
	1    0    0    -1  
$EndComp
$Comp
L SamacSys:RB1-125BAG1A J?
U 1 1 5F015746
P 1650 6150
F 0 "J?" H 2350 6415 50  0000 C CNN
F 1 "RB1-125BAG1A" H 2350 6324 50  0000 C CNN
F 2 "RB1-125BAG1A" H 2900 6250 50  0001 L CNN
F 3 "" H 2900 6150 50  0001 L CNN
F 4 "Modular Connectors / Ethernet Connectors RJ-45 w/ Transformer connector/ude" H 2900 6050 50  0001 L CNN "Description"
F 5 "" H 2900 5950 50  0001 L CNN "Height"
F 6 "950-RB1-125BAG1A" H 2900 5850 50  0001 L CNN "Mouser Part Number"
F 7 "https://www.mouser.co.uk/ProductDetail/WIZnet/RB1-125BAG1A?qs=K8aI8m0%252Bj2HL3CgJHC4yWQ%3D%3D" H 2900 5750 50  0001 L CNN "Mouser Price/Stock"
F 8 "WIZnet Inc" H 2900 5650 50  0001 L CNN "Manufacturer_Name"
F 9 "RB1-125BAG1A" H 2900 5550 50  0001 L CNN "Manufacturer_Part_Number"
	1    1650 6150
	1    0    0    -1  
$EndComp
$Comp
L Device:R R?
U 1 1 5F01DD9D
P 6500 1600
F 0 "R?" H 6570 1646 50  0000 L CNN
F 1 "2k2" H 6570 1555 50  0000 L CNN
F 2 "" V 6430 1600 50  0001 C CNN
F 3 "~" H 6500 1600 50  0001 C CNN
	1    6500 1600
	1    0    0    -1  
$EndComp
$Comp
L Device:R R?
U 1 1 5F01EB14
P 5950 1450
F 0 "R?" H 6020 1496 50  0000 L CNN
F 1 "2k2" H 6020 1405 50  0000 L CNN
F 2 "" V 5880 1450 50  0001 C CNN
F 3 "~" H 5950 1450 50  0001 C CNN
	1    5950 1450
	0    -1   -1   0   
$EndComp
Wire Wire Line
	6500 1750 6500 2000
Wire Wire Line
	5700 1450 5800 1450
Wire Wire Line
	6100 1450 6400 1450
Wire Wire Line
	5600 1450 5700 1450
Connection ~ 5700 1450
Wire Wire Line
	6100 2000 6100 1900
Wire Wire Line
	6000 2000 6000 1900
Wire Wire Line
	5600 1450 5600 2000
Wire Wire Line
	5700 1450 5700 2000
Wire Wire Line
	6400 1450 6400 1850
$Comp
L power:+3.3V #PWR?
U 1 1 5F021188
P 6500 1350
F 0 "#PWR?" H 6500 1200 50  0001 C CNN
F 1 "+3.3V" H 6515 1523 50  0000 C CNN
F 2 "" H 6500 1350 50  0001 C CNN
F 3 "" H 6500 1350 50  0001 C CNN
	1    6500 1350
	1    0    0    -1  
$EndComp
Wire Wire Line
	6500 1350 6500 1450
$Comp
L power:GND #PWR?
U 1 1 5F02185D
P 5450 1550
F 0 "#PWR?" H 5450 1300 50  0001 C CNN
F 1 "GND" H 5455 1377 50  0000 C CNN
F 2 "" H 5450 1550 50  0001 C CNN
F 3 "" H 5450 1550 50  0001 C CNN
	1    5450 1550
	1    0    0    -1  
$EndComp
Wire Wire Line
	5450 1550 5450 1450
Wire Wire Line
	5450 1450 5600 1450
Connection ~ 5600 1450
Wire Wire Line
	6400 1850 6650 1850
Connection ~ 6400 1850
Wire Wire Line
	6400 1850 6400 2000
Wire Wire Line
	7100 3300 7250 3300
Text Label 7250 3300 0    50   ~ 0
P1_PFB
Wire Wire Line
	7100 3500 7950 3500
Wire Wire Line
	8350 3400 8350 3450
Wire Wire Line
	7100 3400 8350 3400
$Comp
L power:GND #PWR?
U 1 1 5F02351E
P 8350 3450
F 0 "#PWR?" H 8350 3200 50  0001 C CNN
F 1 "GND" H 8355 3277 50  0000 C CNN
F 2 "" H 8350 3450 50  0001 C CNN
F 3 "" H 8350 3450 50  0001 C CNN
	1    8350 3450
	1    0    0    -1  
$EndComp
Wire Wire Line
	7100 3700 7150 3700
Wire Wire Line
	7150 3700 7150 3150
$Comp
L power:+3.3V #PWR?
U 1 1 5F023E39
P 7150 3150
F 0 "#PWR?" H 7150 3000 50  0001 C CNN
F 1 "+3.3V" H 7165 3323 50  0000 C CNN
F 2 "" H 7150 3150 50  0001 C CNN
F 3 "" H 7150 3150 50  0001 C CNN
	1    7150 3150
	1    0    0    -1  
$EndComp
Wire Wire Line
	7100 3800 7200 3800
Wire Wire Line
	7100 3900 7200 3900
Wire Wire Line
	7100 4000 7200 4000
Wire Wire Line
	7100 4100 7200 4100
Wire Wire Line
	7100 4200 7200 4200
Text Label 7200 4100 0    50   ~ 0
P1_LED_LINK
Text Label 7200 4200 0    50   ~ 0
P1_LED_SPEED
$Comp
L power:+3.3V #PWR?
U 1 1 5F0258C8
P 5100 3200
F 0 "#PWR?" H 5100 3050 50  0001 C CNN
F 1 "+3.3V" H 5115 3373 50  0000 C CNN
F 2 "" H 5100 3200 50  0001 C CNN
F 3 "" H 5100 3200 50  0001 C CNN
	1    5100 3200
	1    0    0    -1  
$EndComp
Wire Wire Line
	5100 3300 5100 3200
Wire Wire Line
	5100 3500 4950 3500
Wire Wire Line
	5100 3600 4950 3600
Wire Wire Line
	5100 3700 4950 3700
Wire Wire Line
	6500 4900 6500 5000
Text Label 6500 5000 3    50   ~ 0
P1_RBIAS
Wire Wire Line
	6400 4900 6400 5000
Text Label 6400 5000 3    50   ~ 0
P1_PFB
Wire Wire Line
	6300 4900 6300 4950
Wire Wire Line
	6300 4950 6650 4950
Wire Wire Line
	6650 4950 6650 4900
$Comp
L power:+3.3V #PWR?
U 1 1 5F038275
P 6650 4900
F 0 "#PWR?" H 6650 4750 50  0001 C CNN
F 1 "+3.3V" H 6665 5073 50  0000 C CNN
F 2 "" H 6650 4900 50  0001 C CNN
F 3 "" H 6650 4900 50  0001 C CNN
	1    6650 4900
	1    0    0    -1  
$EndComp
Wire Wire Line
	6100 4900 6100 5000
Text Label 6100 5000 3    50   ~ 0
P1_PFB
Wire Wire Line
	6200 4900 6200 4950
Wire Wire Line
	6200 4950 5800 4950
Wire Wire Line
	5800 4900 5800 4950
Connection ~ 5800 4950
Wire Wire Line
	5800 4950 5250 4950
$Comp
L power:GND #PWR?
U 1 1 5F03BB2B
P 5250 4950
F 0 "#PWR?" H 5250 4700 50  0001 C CNN
F 1 "GND" H 5255 4777 50  0000 C CNN
F 2 "" H 5250 4950 50  0001 C CNN
F 3 "" H 5250 4950 50  0001 C CNN
	1    5250 4950
	1    0    0    -1  
$EndComp
$Comp
L Device:R R?
U 1 1 5F03C080
P 1400 4750
F 0 "R?" V 1193 4750 50  0000 C CNN
F 1 "49R9" V 1284 4750 50  0000 C CNN
F 2 "" V 1330 4750 50  0001 C CNN
F 3 "~" H 1400 4750 50  0001 C CNN
	1    1400 4750
	0    1    1    0   
$EndComp
$Comp
L Device:R R?
U 1 1 5F03D85B
P 1800 4750
F 0 "R?" V 1593 4750 50  0000 C CNN
F 1 "49R9" V 1684 4750 50  0000 C CNN
F 2 "" V 1730 4750 50  0001 C CNN
F 3 "~" H 1800 4750 50  0001 C CNN
	1    1800 4750
	0    1    1    0   
$EndComp
$Comp
L power:+3.3V #PWR?
U 1 1 5F03DCC2
P 1600 4700
F 0 "#PWR?" H 1600 4550 50  0001 C CNN
F 1 "+3.3V" H 1615 4873 50  0000 C CNN
F 2 "" H 1600 4700 50  0001 C CNN
F 3 "" H 1600 4700 50  0001 C CNN
	1    1600 4700
	1    0    0    -1  
$EndComp
$Comp
L Device:C C?
U 1 1 5F03E172
P 1600 4950
F 0 "C?" H 1715 4996 50  0000 L CNN
F 1 "100n" H 1715 4905 50  0000 L CNN
F 2 "" H 1638 4800 50  0001 C CNN
F 3 "~" H 1600 4950 50  0001 C CNN
	1    1600 4950
	1    0    0    -1  
$EndComp
$Comp
L power:GND #PWR?
U 1 1 5F03E8DF
P 1600 5150
F 0 "#PWR?" H 1600 4900 50  0001 C CNN
F 1 "GND" H 1605 4977 50  0000 C CNN
F 2 "" H 1600 5150 50  0001 C CNN
F 3 "" H 1600 5150 50  0001 C CNN
	1    1600 5150
	1    0    0    -1  
$EndComp
Wire Wire Line
	1600 5100 1600 5150
Wire Wire Line
	1550 4750 1600 4750
Wire Wire Line
	1600 4700 1600 4750
Connection ~ 1600 4750
Wire Wire Line
	1600 4750 1650 4750
Wire Wire Line
	1600 4800 1600 4750
Wire Wire Line
	5600 4900 5600 5000
Wire Wire Line
	5700 4900 5700 5000
Wire Wire Line
	5900 4900 5900 5000
Wire Wire Line
	6000 4900 6000 5000
Text Label 5600 5000 3    50   ~ 0
P1_RD-
Text Label 5700 5000 3    50   ~ 0
P1_RD+
Text Label 5900 5000 3    50   ~ 0
P1_TD-
Text Label 6000 5000 3    50   ~ 0
P1_TD+
Wire Wire Line
	1250 4750 1200 4750
Wire Wire Line
	1950 4750 2000 4750
$Comp
L Device:R R?
U 1 1 5F057238
P 2900 4750
F 0 "R?" V 2693 4750 50  0000 C CNN
F 1 "49R9" V 2784 4750 50  0000 C CNN
F 2 "" V 2830 4750 50  0001 C CNN
F 3 "~" H 2900 4750 50  0001 C CNN
	1    2900 4750
	0    1    1    0   
$EndComp
$Comp
L Device:R R?
U 1 1 5F05723E
P 3300 4750
F 0 "R?" V 3093 4750 50  0000 C CNN
F 1 "49R9" V 3184 4750 50  0000 C CNN
F 2 "" V 3230 4750 50  0001 C CNN
F 3 "~" H 3300 4750 50  0001 C CNN
	1    3300 4750
	0    1    1    0   
$EndComp
$Comp
L power:+3.3V #PWR?
U 1 1 5F057244
P 3100 4700
F 0 "#PWR?" H 3100 4550 50  0001 C CNN
F 1 "+3.3V" H 3115 4873 50  0000 C CNN
F 2 "" H 3100 4700 50  0001 C CNN
F 3 "" H 3100 4700 50  0001 C CNN
	1    3100 4700
	1    0    0    -1  
$EndComp
$Comp
L Device:C C?
U 1 1 5F05724A
P 3100 4950
F 0 "C?" H 3215 4996 50  0000 L CNN
F 1 "100n" H 3215 4905 50  0000 L CNN
F 2 "" H 3138 4800 50  0001 C CNN
F 3 "~" H 3100 4950 50  0001 C CNN
	1    3100 4950
	1    0    0    -1  
$EndComp
$Comp
L power:GND #PWR?
U 1 1 5F057250
P 3100 5150
F 0 "#PWR?" H 3100 4900 50  0001 C CNN
F 1 "GND" H 3105 4977 50  0000 C CNN
F 2 "" H 3100 5150 50  0001 C CNN
F 3 "" H 3100 5150 50  0001 C CNN
	1    3100 5150
	1    0    0    -1  
$EndComp
Wire Wire Line
	3100 5100 3100 5150
Wire Wire Line
	3050 4750 3100 4750
Wire Wire Line
	3100 4700 3100 4750
Connection ~ 3100 4750
Wire Wire Line
	3100 4750 3150 4750
Wire Wire Line
	3100 4800 3100 4750
Wire Wire Line
	2750 4750 2700 4750
Wire Wire Line
	3450 4750 3500 4750
Text Label 1200 4750 3    50   ~ 0
P1_RD-
Text Label 2000 4750 3    50   ~ 0
P1_RD+
Text Label 2700 4750 3    50   ~ 0
P1_TD-
Text Label 3500 4750 3    50   ~ 0
P1_TD+
$Comp
L power:GND #PWR?
U 1 1 5F05D09D
P 6100 6650
F 0 "#PWR?" H 6100 6400 50  0001 C CNN
F 1 "GND" H 6105 6477 50  0000 C CNN
F 2 "" H 6100 6650 50  0001 C CNN
F 3 "" H 6100 6650 50  0001 C CNN
	1    6100 6650
	1    0    0    -1  
$EndComp
Wire Wire Line
	6100 6650 6100 6600
Wire Wire Line
	6100 6300 6100 6200
Text Label 6100 6200 1    50   ~ 0
P1_RBIAS
$Comp
L Device:R R?
U 1 1 5F05C725
P 6100 6450
F 0 "R?" H 6170 6496 50  0000 L CNN
F 1 "4k87+/-1%" H 6170 6405 50  0000 L CNN
F 2 "" V 6030 6450 50  0001 C CNN
F 3 "~" H 6100 6450 50  0001 C CNN
	1    6100 6450
	1    0    0    -1  
$EndComp
$Comp
L Device:R R?
U 1 1 5F06065E
P 5800 6450
F 0 "R?" H 5870 6496 50  0000 L CNN
F 1 "1k5" H 5870 6405 50  0000 L CNN
F 2 "" V 5730 6450 50  0001 C CNN
F 3 "~" H 5800 6450 50  0001 C CNN
	1    5800 6450
	1    0    0    -1  
$EndComp
$Comp
L power:+3.3V #PWR?
U 1 1 5F063BC1
P 5800 6200
F 0 "#PWR?" H 5800 6050 50  0001 C CNN
F 1 "+3.3V" H 5815 6373 50  0000 C CNN
F 2 "" H 5800 6200 50  0001 C CNN
F 3 "" H 5800 6200 50  0001 C CNN
	1    5800 6200
	1    0    0    -1  
$EndComp
Wire Wire Line
	5800 6300 5800 6200
Wire Wire Line
	5800 6600 5800 6650
Text Label 5800 6650 2    50   ~ 0
MDIO
$Comp
L Device:C C?
U 1 1 5F0678DE
P 1650 1400
F 0 "C?" H 1765 1446 50  0000 L CNN
F 1 "100n" H 1765 1355 50  0000 L CNN
F 2 "" H 1688 1250 50  0001 C CNN
F 3 "~" H 1650 1400 50  0001 C CNN
	1    1650 1400
	1    0    0    -1  
$EndComp
$Comp
L Device:C C?
U 1 1 5F06820F
P 2050 1400
F 0 "C?" H 2165 1446 50  0000 L CNN
F 1 "100n" H 2165 1355 50  0000 L CNN
F 2 "" H 2088 1250 50  0001 C CNN
F 3 "~" H 2050 1400 50  0001 C CNN
	1    2050 1400
	1    0    0    -1  
$EndComp
$Comp
L Device:C C?
U 1 1 5F06869F
P 2450 1400
F 0 "C?" H 2565 1446 50  0000 L CNN
F 1 "100n" H 2565 1355 50  0000 L CNN
F 2 "" H 2488 1250 50  0001 C CNN
F 3 "~" H 2450 1400 50  0001 C CNN
	1    2450 1400
	1    0    0    -1  
$EndComp
$Comp
L Device:CP C?
U 1 1 5F068B1C
P 2850 1400
F 0 "C?" H 2968 1446 50  0000 L CNN
F 1 "10u" H 2968 1355 50  0000 L CNN
F 2 "" H 2888 1250 50  0001 C CNN
F 3 "~" H 2850 1400 50  0001 C CNN
	1    2850 1400
	1    0    0    -1  
$EndComp
Wire Wire Line
	1650 1550 2050 1550
Wire Wire Line
	2050 1550 2450 1550
Connection ~ 2050 1550
Wire Wire Line
	2450 1550 2850 1550
Connection ~ 2450 1550
Wire Wire Line
	2850 1250 2450 1250
Wire Wire Line
	2450 1250 2050 1250
Connection ~ 2450 1250
Wire Wire Line
	1650 1250 2050 1250
Connection ~ 2050 1250
$Comp
L power:+3.3V #PWR?
U 1 1 5F0707F8
P 1650 1200
F 0 "#PWR?" H 1650 1050 50  0001 C CNN
F 1 "+3.3V" H 1665 1373 50  0000 C CNN
F 2 "" H 1650 1200 50  0001 C CNN
F 3 "" H 1650 1200 50  0001 C CNN
	1    1650 1200
	1    0    0    -1  
$EndComp
$Comp
L power:GND #PWR?
U 1 1 5F070F86
P 1650 1600
F 0 "#PWR?" H 1650 1350 50  0001 C CNN
F 1 "GND" H 1655 1427 50  0000 C CNN
F 2 "" H 1650 1600 50  0001 C CNN
F 3 "" H 1650 1600 50  0001 C CNN
	1    1650 1600
	1    0    0    -1  
$EndComp
Wire Wire Line
	1650 1600 1650 1550
Connection ~ 1650 1550
Wire Wire Line
	1650 1200 1650 1250
Connection ~ 1650 1250
$Comp
L Device:C C?
U 1 1 5F0797AD
P 1600 2400
F 0 "C?" H 1715 2446 50  0000 L CNN
F 1 "100n" H 1715 2355 50  0000 L CNN
F 2 "" H 1638 2250 50  0001 C CNN
F 3 "~" H 1600 2400 50  0001 C CNN
	1    1600 2400
	1    0    0    -1  
$EndComp
$Comp
L Device:C C?
U 1 1 5F0797B3
P 2000 2400
F 0 "C?" H 2115 2446 50  0000 L CNN
F 1 "100n" H 2115 2355 50  0000 L CNN
F 2 "" H 2038 2250 50  0001 C CNN
F 3 "~" H 2000 2400 50  0001 C CNN
	1    2000 2400
	1    0    0    -1  
$EndComp
$Comp
L Device:C C?
U 1 1 5F0797B9
P 2400 2400
F 0 "C?" H 2515 2446 50  0000 L CNN
F 1 "100n" H 2515 2355 50  0000 L CNN
F 2 "" H 2438 2250 50  0001 C CNN
F 3 "~" H 2400 2400 50  0001 C CNN
	1    2400 2400
	1    0    0    -1  
$EndComp
$Comp
L Device:CP C?
U 1 1 5F0797BF
P 2800 2400
F 0 "C?" H 2918 2446 50  0000 L CNN
F 1 "10u" H 2918 2355 50  0000 L CNN
F 2 "" H 2838 2250 50  0001 C CNN
F 3 "~" H 2800 2400 50  0001 C CNN
	1    2800 2400
	1    0    0    -1  
$EndComp
Wire Wire Line
	1600 2550 2000 2550
Wire Wire Line
	2000 2550 2400 2550
Connection ~ 2000 2550
Wire Wire Line
	2400 2550 2800 2550
Connection ~ 2400 2550
Wire Wire Line
	2800 2250 2400 2250
Wire Wire Line
	2400 2250 2000 2250
Connection ~ 2400 2250
Wire Wire Line
	1600 2250 2000 2250
Connection ~ 2000 2250
$Comp
L power:GND #PWR?
U 1 1 5F0797D5
P 1600 2600
F 0 "#PWR?" H 1600 2350 50  0001 C CNN
F 1 "GND" H 1605 2427 50  0000 C CNN
F 2 "" H 1600 2600 50  0001 C CNN
F 3 "" H 1600 2600 50  0001 C CNN
	1    1600 2600
	1    0    0    -1  
$EndComp
Wire Wire Line
	1600 2600 1600 2550
Connection ~ 1600 2550
Wire Wire Line
	1600 2200 1600 2250
Connection ~ 1600 2250
Text Label 1600 2200 0    50   ~ 0
P1_PFB
Wire Wire Line
	1650 6150 1550 6150
Wire Wire Line
	1650 6250 1550 6250
Text Label 1550 6150 2    50   ~ 0
P1_TD+
Text Label 1550 6250 2    50   ~ 0
P1_TD-
$Comp
L power:+3.3V #PWR?
U 1 1 5F07F16A
P 1150 6300
F 0 "#PWR?" H 1150 6150 50  0001 C CNN
F 1 "+3.3V" H 1165 6473 50  0000 C CNN
F 2 "" H 1150 6300 50  0001 C CNN
F 3 "" H 1150 6300 50  0001 C CNN
	1    1150 6300
	1    0    0    -1  
$EndComp
$Comp
L Device:C C?
U 1 1 5F07FAC6
P 1150 6550
F 0 "C?" H 1265 6596 50  0000 L CNN
F 1 "100n" H 1265 6505 50  0000 L CNN
F 2 "" H 1188 6400 50  0001 C CNN
F 3 "~" H 1150 6550 50  0001 C CNN
	1    1150 6550
	1    0    0    -1  
$EndComp
$Comp
L power:GND #PWR?
U 1 1 5F080028
P 1150 6750
F 0 "#PWR?" H 1150 6500 50  0001 C CNN
F 1 "GND" H 1155 6577 50  0000 C CNN
F 2 "" H 1150 6750 50  0001 C CNN
F 3 "" H 1150 6750 50  0001 C CNN
	1    1150 6750
	1    0    0    -1  
$EndComp
Wire Wire Line
	1150 6750 1150 6700
Wire Wire Line
	1150 6400 1150 6350
Wire Wire Line
	1650 6350 1150 6350
Connection ~ 1150 6350
Wire Wire Line
	1150 6350 1150 6300
Wire Wire Line
	1650 6750 1550 6750
Text Label 1550 6750 2    50   ~ 0
P1_RD+
Wire Wire Line
	3050 6150 3150 6150
Text Label 3150 6150 0    50   ~ 0
P1_RD-
Wire Wire Line
	3050 6450 3150 6450
Wire Wire Line
	3050 6650 3150 6650
Text Label 3150 6450 0    50   ~ 0
P1_LED_SPEED
Text Label 3150 6650 0    50   ~ 0
P1_LED_LINK
$Comp
L Device:R R?
U 1 1 5F0941BB
P 3800 6550
F 0 "R?" V 3593 6550 50  0000 C CNN
F 1 "270R" V 3684 6550 50  0000 C CNN
F 2 "" V 3730 6550 50  0001 C CNN
F 3 "~" H 3800 6550 50  0001 C CNN
	1    3800 6550
	0    1    1    0   
$EndComp
Wire Wire Line
	3050 6550 3650 6550
Wire Wire Line
	3950 6550 4000 6550
Wire Wire Line
	4000 6550 4000 6350
Wire Wire Line
	3050 6250 3100 6250
Wire Wire Line
	3100 6250 3100 6350
Wire Wire Line
	3050 6350 3100 6350
Connection ~ 3100 6350
Wire Wire Line
	3100 6350 3100 6850
$Comp
L power:GND #PWR?
U 1 1 5F0A4996
P 3100 6850
F 0 "#PWR?" H 3100 6600 50  0001 C CNN
F 1 "GND" H 3105 6677 50  0000 C CNN
F 2 "" H 3100 6850 50  0001 C CNN
F 3 "" H 3100 6850 50  0001 C CNN
	1    3100 6850
	1    0    0    -1  
$EndComp
$Comp
L power:+3.3V #PWR?
U 1 1 5F0A4E58
P 4000 6350
F 0 "#PWR?" H 4000 6200 50  0001 C CNN
F 1 "+3.3V" H 4015 6523 50  0000 C CNN
F 2 "" H 4000 6350 50  0001 C CNN
F 3 "" H 4000 6350 50  0001 C CNN
	1    4000 6350
	1    0    0    -1  
$EndComp
$Comp
L Device:R R?
U 1 1 5F0B3A63
P 3800 6850
F 0 "R?" V 3593 6850 50  0000 C CNN
F 1 "270R" V 3684 6850 50  0000 C CNN
F 2 "" V 3730 6850 50  0001 C CNN
F 3 "~" H 3800 6850 50  0001 C CNN
	1    3800 6850
	0    1    1    0   
$EndComp
Wire Wire Line
	3050 6750 3650 6750
Wire Wire Line
	3650 6750 3650 6850
Wire Wire Line
	3950 6850 4000 6850
Wire Wire Line
	4000 6850 4000 6550
Connection ~ 4000 6550
Text HLabel 4950 3500 0    50   Input ~ 0
TX_EN
Text HLabel 4950 3600 0    50   Input ~ 0
TxD_0
Text HLabel 4950 3700 0    50   Input ~ 0
TxD_1
Text HLabel 6000 1900 1    50   Input ~ 0
RxD_0
Text HLabel 6100 1900 1    50   Input ~ 0
RxD_1
Text HLabel 6650 1850 2    50   Input ~ 0
CRS_DV
Text HLabel 7200 3800 2    50   Input ~ 0
MDC
Text HLabel 7200 3900 2    50   Input ~ 0
MDIO
Text HLabel 7200 4000 2    50   Input ~ 0
RST
Text HLabel 7950 3500 2    50   Input ~ 0
clk
$EndSCHEMATC
