EESchema Schematic File Version 4
EELAYER 30 0
EELAYER END
$Descr A4 11693 8268
encoding utf-8
Sheet 2 3
Title ""
Date ""
Rev ""
Comp ""
Comment1 ""
Comment2 ""
Comment3 ""
Comment4 ""
$EndDescr
$Comp
L SamacSys:DP83848KSQ_NOPB IC1
U 1 1 5F16F7F7
P 3650 2700
AR Path="/5F167C0D/5F16F7F7" Ref="IC1"  Part="1" 
AR Path="/5F177F1E/5F16F7F7" Ref="IC2"  Part="1" 
F 0 "IC1" H 3850 3850 50  0000 L CNN
F 1 "DP83848KSQ_NOPB" H 4350 2450 50  0000 L CNN
F 2 "KiCad:QFN50P600X600X80-41N-D" H 5500 3800 50  0001 L CNN
F 3 "http://www.ti.com/lit/gpn/dp83848k" H 5500 3700 50  0001 L CNN
F 4 "Mini-LS, industrial temperature, single port 10/100 Mb/s PHYTER Ethernet physical layer transceiver" H 5500 3600 50  0001 L CNN "Description"
F 5 "0.8" H 5500 3500 50  0001 L CNN "Height"
F 6 "926-DP83848KSQ/NOPB" H 5500 3400 50  0001 L CNN "Mouser Part Number"
F 7 "https://www.mouser.co.uk/ProductDetail/Texas-Instruments/DP83848KSQ-NOPB?qs=7X5t%252BdzoRHC67BNmk0LA1w%3D%3D" H 5500 3300 50  0001 L CNN "Mouser Price/Stock"
F 8 "Texas Instruments" H 5500 3200 50  0001 L CNN "Manufacturer_Name"
F 9 "DP83848KSQ/NOPB" H 5500 3100 50  0001 L CNN "Manufacturer_Part_Number"
	1    3650 2700
	1    0    0    -1  
$EndComp
$Comp
L Device:R R10
U 1 1 5F16F809
P 5050 1000
AR Path="/5F167C0D/5F16F809" Ref="R10"  Part="1" 
AR Path="/5F177F1E/5F16F809" Ref="R19"  Part="1" 
F 0 "R10" H 5120 1046 50  0000 L CNN
F 1 "2k2" H 5120 955 50  0000 L CNN
F 2 "Resistors_SMD:R_0603_HandSoldering" V 4980 1000 50  0001 C CNN
F 3 "~" H 5050 1000 50  0001 C CNN
	1    5050 1000
	1    0    0    -1  
$EndComp
Wire Wire Line
	5050 1150 5050 1400
Wire Wire Line
	4250 850  4350 850 
Wire Wire Line
	4650 850  4950 850 
Wire Wire Line
	4150 850  4250 850 
Connection ~ 4250 850 
Wire Wire Line
	4650 1400 4650 1300
Wire Wire Line
	4550 1400 4550 1300
Wire Wire Line
	4150 850  4150 1400
Wire Wire Line
	4250 850  4250 1400
Wire Wire Line
	4950 850  4950 1250
Wire Wire Line
	5050 750  5050 850 
Wire Wire Line
	4000 950  4000 850 
Wire Wire Line
	4000 850  4150 850 
Connection ~ 4150 850 
Wire Wire Line
	4950 1250 5200 1250
Connection ~ 4950 1250
Wire Wire Line
	4950 1250 4950 1400
Wire Wire Line
	5650 2700 5800 2700
Wire Wire Line
	5650 2900 5800 2900
Wire Wire Line
	5650 3100 5700 3100
Wire Wire Line
	5700 3100 5700 2550
Wire Wire Line
	5650 3200 5750 3200
Wire Wire Line
	5650 3300 5750 3300
Wire Wire Line
	5650 3400 5750 3400
Wire Wire Line
	5650 3500 5750 3500
Wire Wire Line
	5650 3600 5750 3600
Wire Wire Line
	3650 2700 3650 2600
Wire Wire Line
	3650 2900 3500 2900
Wire Wire Line
	3650 3000 3500 3000
Wire Wire Line
	5050 4300 5050 4400
Wire Wire Line
	4950 4300 4950 4400
Wire Wire Line
	4850 4300 4850 4350
Wire Wire Line
	4850 4350 5200 4350
Wire Wire Line
	5200 4350 5200 4300
Wire Wire Line
	4650 4300 4650 4400
Wire Wire Line
	4750 4300 4750 4350
Wire Wire Line
	4750 4350 4350 4350
Wire Wire Line
	4350 4300 4350 4350
Connection ~ 4350 4350
Wire Wire Line
	4350 4350 3800 4350
$Comp
L power:+3.3V #PWR020
U 1 1 5F17809A
P 1600 2850
AR Path="/5F167C0D/5F17809A" Ref="#PWR020"  Part="1" 
AR Path="/5F177F1E/5F17809A" Ref="#PWR058"  Part="1" 
F 0 "#PWR020" H 1600 2700 50  0001 C CNN
F 1 "+3.3V" H 1615 3023 50  0000 C CNN
F 2 "" H 1600 2850 50  0001 C CNN
F 3 "" H 1600 2850 50  0001 C CNN
	1    1600 2850
	1    0    0    -1  
$EndComp
$Comp
L Device:C C4
U 1 1 5F16F882
P 1600 3100
AR Path="/5F167C0D/5F16F882" Ref="C4"  Part="1" 
AR Path="/5F177F1E/5F16F882" Ref="C15"  Part="1" 
F 0 "C4" H 1715 3146 50  0000 L CNN
F 1 "100n" H 1715 3055 50  0000 L CNN
F 2 "Capacitors_SMD:C_0603_HandSoldering" H 1638 2950 50  0001 C CNN
F 3 "~" H 1600 3100 50  0001 C CNN
	1    1600 3100
	1    0    0    -1  
$EndComp
Wire Wire Line
	1600 3250 1600 3300
Wire Wire Line
	1550 2900 1600 2900
Wire Wire Line
	1600 2850 1600 2900
Connection ~ 1600 2900
Wire Wire Line
	1600 2900 1650 2900
Wire Wire Line
	1600 2950 1600 2900
Wire Wire Line
	4150 4300 4150 4400
Wire Wire Line
	4250 4300 4250 4400
Wire Wire Line
	4450 4300 4450 4400
Wire Wire Line
	4550 4300 4550 4400
Wire Wire Line
	1250 2900 1200 2900
Wire Wire Line
	1950 2900 2000 2900
$Comp
L Device:R R4
U 1 1 5F16F89E
P 2350 2900
AR Path="/5F167C0D/5F16F89E" Ref="R4"  Part="1" 
AR Path="/5F177F1E/5F16F89E" Ref="R13"  Part="1" 
F 0 "R4" V 2143 2900 50  0000 C CNN
F 1 "49R9" V 2234 2900 50  0000 C CNN
F 2 "Resistors_SMD:R_0603_HandSoldering" V 2280 2900 50  0001 C CNN
F 3 "~" H 2350 2900 50  0001 C CNN
	1    2350 2900
	0    1    1    0   
$EndComp
$Comp
L Device:R R5
U 1 1 5F16F8A4
P 2750 2900
AR Path="/5F167C0D/5F16F8A4" Ref="R5"  Part="1" 
AR Path="/5F177F1E/5F16F8A4" Ref="R14"  Part="1" 
F 0 "R5" V 2543 2900 50  0000 C CNN
F 1 "49R9" V 2634 2900 50  0000 C CNN
F 2 "Resistors_SMD:R_0603_HandSoldering" V 2680 2900 50  0001 C CNN
F 3 "~" H 2750 2900 50  0001 C CNN
	1    2750 2900
	0    1    1    0   
$EndComp
$Comp
L power:+3.3V #PWR028
U 1 1 5F17809F
P 2550 2850
AR Path="/5F167C0D/5F17809F" Ref="#PWR028"  Part="1" 
AR Path="/5F177F1E/5F17809F" Ref="#PWR066"  Part="1" 
F 0 "#PWR028" H 2550 2700 50  0001 C CNN
F 1 "+3.3V" H 2565 3023 50  0000 C CNN
F 2 "" H 2550 2850 50  0001 C CNN
F 3 "" H 2550 2850 50  0001 C CNN
	1    2550 2850
	1    0    0    -1  
$EndComp
$Comp
L Device:C C12
U 1 1 5F16F8B0
P 2550 3100
AR Path="/5F167C0D/5F16F8B0" Ref="C12"  Part="1" 
AR Path="/5F177F1E/5F16F8B0" Ref="C23"  Part="1" 
F 0 "C12" H 2665 3146 50  0000 L CNN
F 1 "100n" H 2665 3055 50  0000 L CNN
F 2 "Capacitors_SMD:C_0603_HandSoldering" H 2588 2950 50  0001 C CNN
F 3 "~" H 2550 3100 50  0001 C CNN
	1    2550 3100
	1    0    0    -1  
$EndComp
Wire Wire Line
	2500 2900 2550 2900
Wire Wire Line
	2550 2850 2550 2900
Connection ~ 2550 2900
Wire Wire Line
	2550 2900 2600 2900
Wire Wire Line
	2550 2950 2550 2900
Wire Wire Line
	2200 2900 2150 2900
Wire Wire Line
	2900 2900 2950 2900
Wire Wire Line
	5800 4550 5800 4500
Wire Wire Line
	5800 4200 5800 4100
$Comp
L Device:R R9
U 1 1 5F16F8D1
P 5800 4350
AR Path="/5F167C0D/5F16F8D1" Ref="R9"  Part="1" 
AR Path="/5F177F1E/5F16F8D1" Ref="R18"  Part="1" 
F 0 "R9" H 5870 4396 50  0000 L CNN
F 1 "4k87+/-1%" H 5870 4305 50  0000 L CNN
F 2 "Resistors_SMD:R_0603_HandSoldering" V 5730 4350 50  0001 C CNN
F 3 "~" H 5800 4350 50  0001 C CNN
	1    5800 4350
	1    0    0    -1  
$EndComp
$Comp
L Device:C C5
U 1 1 5F16F8E6
P 1350 1250
AR Path="/5F167C0D/5F16F8E6" Ref="C5"  Part="1" 
AR Path="/5F177F1E/5F16F8E6" Ref="C16"  Part="1" 
F 0 "C5" H 1465 1296 50  0000 L CNN
F 1 "100n" H 1465 1205 50  0000 L CNN
F 2 "Capacitors_SMD:C_0603_HandSoldering" H 1388 1100 50  0001 C CNN
F 3 "~" H 1350 1250 50  0001 C CNN
	1    1350 1250
	1    0    0    -1  
$EndComp
$Comp
L Device:C C7
U 1 1 5F16F8EC
P 1750 1250
AR Path="/5F167C0D/5F16F8EC" Ref="C7"  Part="1" 
AR Path="/5F177F1E/5F16F8EC" Ref="C18"  Part="1" 
F 0 "C7" H 1865 1296 50  0000 L CNN
F 1 "100n" H 1865 1205 50  0000 L CNN
F 2 "Capacitors_SMD:C_0603_HandSoldering" H 1788 1100 50  0001 C CNN
F 3 "~" H 1750 1250 50  0001 C CNN
	1    1750 1250
	1    0    0    -1  
$EndComp
$Comp
L Device:C C9
U 1 1 5F16F8F2
P 2150 1250
AR Path="/5F167C0D/5F16F8F2" Ref="C9"  Part="1" 
AR Path="/5F177F1E/5F16F8F2" Ref="C20"  Part="1" 
F 0 "C9" H 2265 1296 50  0000 L CNN
F 1 "100n" H 2265 1205 50  0000 L CNN
F 2 "Capacitors_SMD:C_0603_HandSoldering" H 2188 1100 50  0001 C CNN
F 3 "~" H 2150 1250 50  0001 C CNN
	1    2150 1250
	1    0    0    -1  
$EndComp
$Comp
L Device:CP C11
U 1 1 5F16F8F8
P 2550 1250
AR Path="/5F167C0D/5F16F8F8" Ref="C11"  Part="1" 
AR Path="/5F177F1E/5F16F8F8" Ref="C22"  Part="1" 
F 0 "C11" H 2668 1296 50  0000 L CNN
F 1 "10u" H 2668 1205 50  0000 L CNN
F 2 "Capacitors_Tantalum_SMD:CP_Tantalum_Case-R_EIA-2012-12_Hand" H 2588 1100 50  0001 C CNN
F 3 "~" H 2550 1250 50  0001 C CNN
	1    2550 1250
	1    0    0    -1  
$EndComp
Wire Wire Line
	1350 1400 1750 1400
Wire Wire Line
	1750 1400 2150 1400
Connection ~ 1750 1400
Wire Wire Line
	2150 1400 2550 1400
Connection ~ 2150 1400
Wire Wire Line
	2550 1100 2150 1100
Wire Wire Line
	2150 1100 1750 1100
Connection ~ 2150 1100
Wire Wire Line
	1350 1100 1750 1100
Connection ~ 1750 1100
Wire Wire Line
	1350 1450 1350 1400
Connection ~ 1350 1400
Wire Wire Line
	1350 1050 1350 1100
Connection ~ 1350 1100
$Comp
L Device:C C8
U 1 1 5F16F924
P 2100 2000
AR Path="/5F167C0D/5F16F924" Ref="C8"  Part="1" 
AR Path="/5F177F1E/5F16F924" Ref="C19"  Part="1" 
F 0 "C8" H 2215 2046 50  0000 L CNN
F 1 "100n" H 2215 1955 50  0000 L CNN
F 2 "Capacitors_SMD:C_0603_HandSoldering" H 2138 1850 50  0001 C CNN
F 3 "~" H 2100 2000 50  0001 C CNN
	1    2100 2000
	1    0    0    -1  
$EndComp
$Comp
L Device:CP C10
U 1 1 5F16F92A
P 2500 2000
AR Path="/5F167C0D/5F16F92A" Ref="C10"  Part="1" 
AR Path="/5F177F1E/5F16F92A" Ref="C21"  Part="1" 
F 0 "C10" H 2618 2046 50  0000 L CNN
F 1 "10u" H 2618 1955 50  0000 L CNN
F 2 "Capacitors_Tantalum_SMD:CP_Tantalum_Case-R_EIA-2012-12_Hand" H 2538 1850 50  0001 C CNN
F 3 "~" H 2500 2000 50  0001 C CNN
	1    2500 2000
	1    0    0    -1  
$EndComp
Wire Wire Line
	1300 2150 1700 2150
Wire Wire Line
	1700 2150 2100 2150
Connection ~ 1700 2150
Wire Wire Line
	2100 2150 2500 2150
Connection ~ 2100 2150
Wire Wire Line
	2500 1850 2100 1850
Wire Wire Line
	2100 1850 1700 1850
Connection ~ 2100 1850
Wire Wire Line
	1300 1850 1700 1850
Connection ~ 1700 1850
Wire Wire Line
	1300 2200 1300 2150
Connection ~ 1300 2150
Wire Wire Line
	1300 1800 1300 1850
Connection ~ 1300 1850
Wire Wire Line
	1200 3850 1100 3850
Wire Wire Line
	1200 3950 1100 3950
Text Label 1100 3950 2    50   ~ 0
P1_TD-
$Comp
L power:GND #PWR016
U 1 1 5F1780B1
P 700 4500
AR Path="/5F167C0D/5F1780B1" Ref="#PWR016"  Part="1" 
AR Path="/5F177F1E/5F1780B1" Ref="#PWR054"  Part="1" 
F 0 "#PWR016" H 700 4250 50  0001 C CNN
F 1 "GND" H 705 4327 50  0000 C CNN
F 2 "" H 700 4500 50  0001 C CNN
F 3 "" H 700 4500 50  0001 C CNN
	1    700  4500
	1    0    0    -1  
$EndComp
Wire Wire Line
	700  4100 700  4050
Wire Wire Line
	1200 4050 700  4050
Connection ~ 700  4050
Wire Wire Line
	700  4050 700  4000
Wire Wire Line
	1200 4450 1100 4450
Wire Wire Line
	2600 3850 2700 3850
Wire Wire Line
	2600 4150 2700 4150
Wire Wire Line
	2600 4350 2700 4350
$Comp
L Device:R R6
U 1 1 5F16F968
P 3350 4250
AR Path="/5F167C0D/5F16F968" Ref="R6"  Part="1" 
AR Path="/5F177F1E/5F16F968" Ref="R15"  Part="1" 
F 0 "R6" V 3143 4250 50  0000 C CNN
F 1 "270R" V 3234 4250 50  0000 C CNN
F 2 "Resistors_SMD:R_0603_HandSoldering" V 3280 4250 50  0001 C CNN
F 3 "~" H 3350 4250 50  0001 C CNN
	1    3350 4250
	0    1    1    0   
$EndComp
Wire Wire Line
	2600 4250 3200 4250
Wire Wire Line
	3500 4250 3550 4250
Wire Wire Line
	3550 4250 3550 4050
Wire Wire Line
	2600 3950 2650 3950
Wire Wire Line
	2650 3950 2650 4050
Wire Wire Line
	2600 4050 2650 4050
Connection ~ 2650 4050
Wire Wire Line
	2650 4050 2650 4550
$Comp
L Device:R R7
U 1 1 5F16F982
P 3350 4550
AR Path="/5F167C0D/5F16F982" Ref="R7"  Part="1" 
AR Path="/5F177F1E/5F16F982" Ref="R16"  Part="1" 
F 0 "R7" V 3143 4550 50  0000 C CNN
F 1 "270R" V 3234 4550 50  0000 C CNN
F 2 "Resistors_SMD:R_0603_HandSoldering" V 3280 4550 50  0001 C CNN
F 3 "~" H 3350 4550 50  0001 C CNN
	1    3350 4550
	0    1    1    0   
$EndComp
Wire Wire Line
	2600 4450 3200 4450
Wire Wire Line
	3200 4450 3200 4550
Wire Wire Line
	3500 4550 3550 4550
Wire Wire Line
	3550 4550 3550 4250
Connection ~ 3550 4250
Text HLabel 3500 3100 0    50   Input ~ 0
TxD_1
$Comp
L SamacSys:RB1-125BAG1A J6
U 1 1 5F16F803
P 1200 3850
AR Path="/5F177F1E/5F16F803" Ref="J6"  Part="1" 
AR Path="/5F167C0D/5F16F803" Ref="J5"  Part="1" 
F 0 "J5" H 1900 4115 50  0000 C CNN
F 1 "RB1-125BAG1A" H 1900 4024 50  0000 C CNN
F 2 "KiCad:RB1-125BAG1A" H 2450 3950 50  0001 L CNN
F 3 "" H 2450 3850 50  0001 L CNN
F 4 "Modular Connectors / Ethernet Connectors RJ-45 w/ Transformer connector/ude" H 2450 3750 50  0001 L CNN "Description"
F 5 "" H 2450 3650 50  0001 L CNN "Height"
F 6 "950-RB1-125BAG1A" H 2450 3550 50  0001 L CNN "Mouser Part Number"
F 7 "https://www.mouser.co.uk/ProductDetail/WIZnet/RB1-125BAG1A?qs=K8aI8m0%252Bj2HL3CgJHC4yWQ%3D%3D" H 2450 3450 50  0001 L CNN "Mouser Price/Stock"
F 8 "WIZnet Inc" H 2450 3350 50  0001 L CNN "Manufacturer_Name"
F 9 "RB1-125BAG1A" H 2450 3250 50  0001 L CNN "Manufacturer_Part_Number"
	1    1200 3850
	1    0    0    -1  
$EndComp
$Comp
L Device:R R17
U 1 1 5F16F80F
P 4500 850
AR Path="/5F177F1E/5F16F80F" Ref="R17"  Part="1" 
AR Path="/5F167C0D/5F16F80F" Ref="R8"  Part="1" 
F 0 "R8" H 4570 896 50  0000 L CNN
F 1 "2k2" H 4570 805 50  0000 L CNN
F 2 "Resistors_SMD:R_0603_HandSoldering" V 4430 850 50  0001 C CNN
F 3 "~" H 4500 850 50  0001 C CNN
	1    4500 850 
	0    -1   -1   0   
$EndComp
$Comp
L power:+3.3V #PWR082
U 1 1 5F178091
P 5050 750
AR Path="/5F177F1E/5F178091" Ref="#PWR082"  Part="1" 
AR Path="/5F167C0D/5F178091" Ref="#PWR044"  Part="1" 
F 0 "#PWR044" H 5050 600 50  0001 C CNN
F 1 "+3.3V" H 5065 923 50  0000 C CNN
F 2 "" H 5050 750 50  0001 C CNN
F 3 "" H 5050 750 50  0001 C CNN
	1    5050 750 
	1    0    0    -1  
$EndComp
$Comp
L power:GND #PWR077
U 1 1 5F16F826
P 4000 950
AR Path="/5F177F1E/5F16F826" Ref="#PWR077"  Part="1" 
AR Path="/5F167C0D/5F16F826" Ref="#PWR039"  Part="1" 
F 0 "#PWR039" H 4000 700 50  0001 C CNN
F 1 "GND" H 4005 777 50  0000 C CNN
F 2 "" H 4000 950 50  0001 C CNN
F 3 "" H 4000 950 50  0001 C CNN
	1    4000 950 
	1    0    0    -1  
$EndComp
Text Label 5800 2700 0    50   ~ 0
P1_PFB
$Comp
L power:GND #PWR088
U 1 1 5F178093
P 6050 2900
AR Path="/5F177F1E/5F178093" Ref="#PWR088"  Part="1" 
AR Path="/5F167C0D/5F178093" Ref="#PWR050"  Part="1" 
F 0 "#PWR050" H 6050 2650 50  0001 C CNN
F 1 "GND" H 6055 2727 50  0000 C CNN
F 2 "" H 6050 2900 50  0001 C CNN
F 3 "" H 6050 2900 50  0001 C CNN
	1    6050 2900
	1    0    0    -1  
$EndComp
$Comp
L power:+3.3V #PWR085
U 1 1 5F16F83F
P 5700 2550
AR Path="/5F177F1E/5F16F83F" Ref="#PWR085"  Part="1" 
AR Path="/5F167C0D/5F16F83F" Ref="#PWR047"  Part="1" 
F 0 "#PWR047" H 5700 2400 50  0001 C CNN
F 1 "+3.3V" H 5715 2723 50  0000 C CNN
F 2 "" H 5700 2550 50  0001 C CNN
F 3 "" H 5700 2550 50  0001 C CNN
	1    5700 2550
	1    0    0    -1  
$EndComp
Text Label 5750 3500 0    50   ~ 0
P1_LED_LINK
Text Label 5750 3600 0    50   ~ 0
P1_LED_SPEED
$Comp
L power:+3.3V #PWR074
U 1 1 5F178095
P 3650 2600
AR Path="/5F177F1E/5F178095" Ref="#PWR074"  Part="1" 
AR Path="/5F167C0D/5F178095" Ref="#PWR036"  Part="1" 
F 0 "#PWR036" H 3650 2450 50  0001 C CNN
F 1 "+3.3V" H 3665 2773 50  0000 C CNN
F 2 "" H 3650 2600 50  0001 C CNN
F 3 "" H 3650 2600 50  0001 C CNN
	1    3650 2600
	1    0    0    -1  
$EndComp
Text Label 5050 4400 3    50   ~ 0
P1_RBIAS
Text Label 4950 4400 3    50   ~ 0
P1_PFB
$Comp
L power:+3.3V #PWR084
U 1 1 5F178096
P 5200 4300
AR Path="/5F177F1E/5F178096" Ref="#PWR084"  Part="1" 
AR Path="/5F167C0D/5F178096" Ref="#PWR046"  Part="1" 
F 0 "#PWR046" H 5200 4150 50  0001 C CNN
F 1 "+3.3V" H 5215 4473 50  0000 C CNN
F 2 "" H 5200 4300 50  0001 C CNN
F 3 "" H 5200 4300 50  0001 C CNN
	1    5200 4300
	1    0    0    -1  
$EndComp
Text Label 4650 4400 3    50   ~ 0
P1_PFB
$Comp
L power:GND #PWR076
U 1 1 5F178097
P 3800 4350
AR Path="/5F177F1E/5F178097" Ref="#PWR076"  Part="1" 
AR Path="/5F167C0D/5F178097" Ref="#PWR038"  Part="1" 
F 0 "#PWR038" H 3800 4100 50  0001 C CNN
F 1 "GND" H 3805 4177 50  0000 C CNN
F 2 "" H 3800 4350 50  0001 C CNN
F 3 "" H 3800 4350 50  0001 C CNN
	1    3800 4350
	1    0    0    -1  
$EndComp
$Comp
L Device:R R11
U 1 1 5F16F870
P 1400 2900
AR Path="/5F177F1E/5F16F870" Ref="R11"  Part="1" 
AR Path="/5F167C0D/5F16F870" Ref="R2"  Part="1" 
F 0 "R2" V 1193 2900 50  0000 C CNN
F 1 "49R9" V 1284 2900 50  0000 C CNN
F 2 "Resistors_SMD:R_0603_HandSoldering" V 1330 2900 50  0001 C CNN
F 3 "~" H 1400 2900 50  0001 C CNN
	1    1400 2900
	0    1    1    0   
$EndComp
$Comp
L Device:R R12
U 1 1 5F16F876
P 1800 2900
AR Path="/5F177F1E/5F16F876" Ref="R12"  Part="1" 
AR Path="/5F167C0D/5F16F876" Ref="R3"  Part="1" 
F 0 "R3" V 1593 2900 50  0000 C CNN
F 1 "49R9" V 1684 2900 50  0000 C CNN
F 2 "Resistors_SMD:R_0603_HandSoldering" V 1730 2900 50  0001 C CNN
F 3 "~" H 1800 2900 50  0001 C CNN
	1    1800 2900
	0    1    1    0   
$EndComp
$Comp
L power:+3.3V #PWR057
U 1 1 5F16F87C
P 1600 2850
AR Path="/5F177F1E/5F16F87C" Ref="#PWR057"  Part="1" 
AR Path="/5F167C0D/5F16F87C" Ref="#PWR019"  Part="1" 
F 0 "#PWR019" H 1600 2700 50  0001 C CNN
F 1 "+3.3V" H 1615 3023 50  0000 C CNN
F 2 "" H 1600 2850 50  0001 C CNN
F 3 "" H 1600 2850 50  0001 C CNN
	1    1600 2850
	1    0    0    -1  
$EndComp
$Comp
L power:GND #PWR060
U 1 1 5F17809C
P 1600 3300
AR Path="/5F177F1E/5F17809C" Ref="#PWR060"  Part="1" 
AR Path="/5F167C0D/5F17809C" Ref="#PWR022"  Part="1" 
F 0 "#PWR022" H 1600 3050 50  0001 C CNN
F 1 "GND" H 1605 3127 50  0000 C CNN
F 2 "" H 1600 3300 50  0001 C CNN
F 3 "" H 1600 3300 50  0001 C CNN
	1    1600 3300
	1    0    0    -1  
$EndComp
Text Label 4150 4400 3    50   ~ 0
P1_RD-
Text Label 4250 4400 3    50   ~ 0
P1_RD+
Text Label 4450 4400 3    50   ~ 0
P1_TD-
Text Label 4550 4400 3    50   ~ 0
P1_TD+
$Comp
L power:+3.3V #PWR065
U 1 1 5F16F8AA
P 2550 2850
AR Path="/5F177F1E/5F16F8AA" Ref="#PWR065"  Part="1" 
AR Path="/5F167C0D/5F16F8AA" Ref="#PWR027"  Part="1" 
F 0 "#PWR027" H 2550 2700 50  0001 C CNN
F 1 "+3.3V" H 2565 3023 50  0000 C CNN
F 2 "" H 2550 2850 50  0001 C CNN
F 3 "" H 2550 2850 50  0001 C CNN
	1    2550 2850
	1    0    0    -1  
$EndComp
Text Label 1200 2900 3    50   ~ 0
P1_RD-
Text Label 2000 2900 3    50   ~ 0
P1_RD+
Text Label 2150 2900 3    50   ~ 0
P1_TD-
Text Label 2950 2900 3    50   ~ 0
P1_TD+
$Comp
L power:GND #PWR080
U 1 1 5F1780A2
P 5800 4550
AR Path="/5F177F1E/5F1780A2" Ref="#PWR080"  Part="1" 
AR Path="/5F167C0D/5F1780A2" Ref="#PWR042"  Part="1" 
F 0 "#PWR042" H 5800 4300 50  0001 C CNN
F 1 "GND" H 5805 4377 50  0000 C CNN
F 2 "" H 5800 4550 50  0001 C CNN
F 3 "" H 5800 4550 50  0001 C CNN
	1    5800 4550
	1    0    0    -1  
$EndComp
Text Label 5800 4100 1    50   ~ 0
P1_RBIAS
$Comp
L power:+3.3V #PWR062
U 1 1 5F1780A8
P 1350 1050
AR Path="/5F177F1E/5F1780A8" Ref="#PWR062"  Part="1" 
AR Path="/5F167C0D/5F1780A8" Ref="#PWR024"  Part="1" 
F 0 "#PWR024" H 1350 900 50  0001 C CNN
F 1 "+3.3V" H 1365 1223 50  0000 C CNN
F 2 "" H 1350 1050 50  0001 C CNN
F 3 "" H 1350 1050 50  0001 C CNN
	1    1350 1050
	1    0    0    -1  
$EndComp
$Comp
L power:GND #PWR063
U 1 1 5F16F90E
P 1350 1450
AR Path="/5F177F1E/5F16F90E" Ref="#PWR063"  Part="1" 
AR Path="/5F167C0D/5F16F90E" Ref="#PWR025"  Part="1" 
F 0 "#PWR025" H 1350 1200 50  0001 C CNN
F 1 "GND" H 1355 1277 50  0000 C CNN
F 2 "" H 1350 1450 50  0001 C CNN
F 3 "" H 1350 1450 50  0001 C CNN
	1    1350 1450
	1    0    0    -1  
$EndComp
$Comp
L Device:C C14
U 1 1 5F16F918
P 1300 2000
AR Path="/5F177F1E/5F16F918" Ref="C14"  Part="1" 
AR Path="/5F167C0D/5F16F918" Ref="C3"  Part="1" 
F 0 "C3" H 1415 2046 50  0000 L CNN
F 1 "100n" H 1415 1955 50  0000 L CNN
F 2 "Capacitors_SMD:C_0603_HandSoldering" H 1338 1850 50  0001 C CNN
F 3 "~" H 1300 2000 50  0001 C CNN
	1    1300 2000
	1    0    0    -1  
$EndComp
$Comp
L Device:C C17
U 1 1 5F16F91E
P 1700 2000
AR Path="/5F177F1E/5F16F91E" Ref="C17"  Part="1" 
AR Path="/5F167C0D/5F16F91E" Ref="C6"  Part="1" 
F 0 "C6" H 1815 2046 50  0000 L CNN
F 1 "100n" H 1815 1955 50  0000 L CNN
F 2 "Capacitors_SMD:C_0603_HandSoldering" H 1738 1850 50  0001 C CNN
F 3 "~" H 1700 2000 50  0001 C CNN
	1    1700 2000
	1    0    0    -1  
$EndComp
$Comp
L power:GND #PWR056
U 1 1 5F1780AE
P 1300 2200
AR Path="/5F177F1E/5F1780AE" Ref="#PWR056"  Part="1" 
AR Path="/5F167C0D/5F1780AE" Ref="#PWR018"  Part="1" 
F 0 "#PWR018" H 1300 1950 50  0001 C CNN
F 1 "GND" H 1305 2027 50  0000 C CNN
F 2 "" H 1300 2200 50  0001 C CNN
F 3 "" H 1300 2200 50  0001 C CNN
	1    1300 2200
	1    0    0    -1  
$EndComp
Text Label 1300 1800 0    50   ~ 0
P1_PFB
Text Label 1100 3850 2    50   ~ 0
P1_TD+
Text Label 1100 3950 2    50   ~ 0
P1_TD-
$Comp
L power:+3.3V #PWR052
U 1 1 5F1780AF
P 700 4000
AR Path="/5F177F1E/5F1780AF" Ref="#PWR052"  Part="1" 
AR Path="/5F167C0D/5F1780AF" Ref="#PWR014"  Part="1" 
F 0 "#PWR014" H 700 3850 50  0001 C CNN
F 1 "+3.3V" H 715 4173 50  0000 C CNN
F 2 "" H 700 4000 50  0001 C CNN
F 3 "" H 700 4000 50  0001 C CNN
	1    700  4000
	1    0    0    -1  
$EndComp
Text Label 1100 4450 2    50   ~ 0
P1_RD+
Text Label 2700 3850 0    50   ~ 0
P1_RD-
Text Label 2700 4150 0    50   ~ 0
P1_LED_SPEED
Text Label 2700 4350 0    50   ~ 0
P1_LED_LINK
$Comp
L power:GND #PWR070
U 1 1 5F1780B3
P 2650 4550
AR Path="/5F177F1E/5F1780B3" Ref="#PWR070"  Part="1" 
AR Path="/5F167C0D/5F1780B3" Ref="#PWR032"  Part="1" 
F 0 "#PWR032" H 2650 4300 50  0001 C CNN
F 1 "GND" H 2655 4377 50  0000 C CNN
F 2 "" H 2650 4550 50  0001 C CNN
F 3 "" H 2650 4550 50  0001 C CNN
	1    2650 4550
	1    0    0    -1  
$EndComp
$Comp
L power:+3.3V #PWR071
U 1 1 5F16F97C
P 3550 4050
AR Path="/5F177F1E/5F16F97C" Ref="#PWR071"  Part="1" 
AR Path="/5F167C0D/5F16F97C" Ref="#PWR033"  Part="1" 
F 0 "#PWR033" H 3550 3900 50  0001 C CNN
F 1 "+3.3V" H 3565 4223 50  0000 C CNN
F 2 "" H 3550 4050 50  0001 C CNN
F 3 "" H 3550 4050 50  0001 C CNN
	1    3550 4050
	1    0    0    -1  
$EndComp
Text HLabel 3500 2900 0    50   Input ~ 0
TX_EN
Text HLabel 3500 3000 0    50   Input ~ 0
TxD_0
Text HLabel 4550 1300 1    50   Input ~ 0
RxD_1
Text HLabel 4650 1300 1    50   Input ~ 0
RxD_0
Text HLabel 5200 1250 2    50   Input ~ 0
CRS_DV
Text HLabel 5750 3200 2    50   Input ~ 0
MDC
Text HLabel 5750 3300 2    50   Input ~ 0
MDIO
Text HLabel 5750 3400 2    50   Input ~ 0
RST
NoConn ~ 1200 4150
NoConn ~ 1200 4250
NoConn ~ 1200 4350
NoConn ~ 3650 2800
NoConn ~ 3650 3300
NoConn ~ 3650 3400
NoConn ~ 3650 3500
NoConn ~ 3650 3600
NoConn ~ 5650 3000
NoConn ~ 5150 1400
NoConn ~ 4850 1400
NoConn ~ 4750 1400
NoConn ~ 4450 1400
NoConn ~ 4350 1400
NoConn ~ 3650 3200
Wire Wire Line
	700  4500 700  4400
$Comp
L Device:C C2
U 1 1 5F16F94F
P 700 4250
AR Path="/5F167C0D/5F16F94F" Ref="C2"  Part="1" 
AR Path="/5F177F1E/5F16F94F" Ref="C13"  Part="1" 
F 0 "C2" H 815 4296 50  0000 L CNN
F 1 "100n" H 815 4205 50  0000 L CNN
F 2 "Capacitors_SMD:C_0603_HandSoldering" H 738 4100 50  0001 C CNN
F 3 "~" H 700 4250 50  0001 C CNN
	1    700  4250
	1    0    0    -1  
$EndComp
Wire Wire Line
	3500 3100 3650 3100
Wire Wire Line
	5650 2800 6050 2800
Wire Wire Line
	6050 2800 6050 2900
$Comp
L power:GND #PWR0101
U 1 1 5F280C9C
P 2550 3300
AR Path="/5F167C0D/5F280C9C" Ref="#PWR0101"  Part="1" 
AR Path="/5F177F1E/5F280C9C" Ref="#PWR0102"  Part="1" 
F 0 "#PWR0101" H 2550 3050 50  0001 C CNN
F 1 "GND" H 2555 3127 50  0000 C CNN
F 2 "" H 2550 3300 50  0001 C CNN
F 3 "" H 2550 3300 50  0001 C CNN
	1    2550 3300
	1    0    0    -1  
$EndComp
Wire Wire Line
	2550 3250 2550 3300
Text HLabel 5800 2900 2    50   Input ~ 0
clk
Connection ~ 1600 2850
Connection ~ 2550 2850
$EndSCHEMATC
