EESchema Schematic File Version 4
EELAYER 30 0
EELAYER END
$Descr A4 11693 8268
encoding utf-8
Sheet 1 3
Title ""
Date ""
Rev ""
Comp ""
Comment1 ""
Comment2 ""
Comment3 ""
Comment4 ""
$EndDescr
$Sheet
S 8400 3300 750  600 
U 5F167C0D
F0 "Phy1" 50
F1 "phy.sch" 50
F2 "TX_EN" I L 8400 3350 50 
F3 "TxD_0" I L 8400 3450 50 
F4 "TxD_1" I L 8400 3550 50 
F5 "RxD_0" I R 9150 3450 50 
F6 "RxD_1" I R 9150 3550 50 
F7 "CRS_DV" I R 9150 3350 50 
F8 "MDC" I R 9150 3700 50 
F9 "MDIO" I R 9150 3800 50 
F10 "RST" I L 8400 3700 50 
F11 "clk" I L 8400 3800 50 
$EndSheet
$Comp
L Device:R R1
U 1 1 5F175F42
P 8250 2450
F 0 "R1" H 8320 2496 50  0000 L CNN
F 1 "1k5" H 8320 2405 50  0000 L CNN
F 2 "Resistors_SMD:R_0603_HandSoldering" V 8180 2450 50  0001 C CNN
F 3 "~" H 8250 2450 50  0001 C CNN
	1    8250 2450
	1    0    0    -1  
$EndComp
$Comp
L power:+3.3V #PWR012
U 1 1 5F175F48
P 8250 2200
F 0 "#PWR012" H 8250 2050 50  0001 C CNN
F 1 "+3.3V" H 8265 2373 50  0000 C CNN
F 2 "" H 8250 2200 50  0001 C CNN
F 3 "" H 8250 2200 50  0001 C CNN
	1    8250 2200
	1    0    0    -1  
$EndComp
Wire Wire Line
	8250 2300 8250 2200
Wire Wire Line
	8250 2600 8250 2650
Text Label 8250 2650 2    50   ~ 0
MDIO
Wire Wire Line
	9150 3800 9250 3800
Wire Wire Line
	9150 3700 9250 3700
Text Label 9250 3800 0    50   ~ 0
MDIO
Wire Wire Line
	9150 4800 9250 4800
Wire Wire Line
	9150 4700 9250 4700
$Sheet
S 8400 4300 750  600 
U 5F177F1E
F0 "Phy2" 50
F1 "phy.sch" 50
F2 "TX_EN" I L 8400 4350 50 
F3 "TxD_0" I L 8400 4450 50 
F4 "TxD_1" I L 8400 4550 50 
F5 "RxD_0" I R 9150 4450 50 
F6 "RxD_1" I R 9150 4550 50 
F7 "CRS_DV" I R 9150 4350 50 
F8 "MDC" I R 9150 4700 50 
F9 "MDIO" I R 9150 4800 50 
F10 "RST" I L 8400 4700 50 
F11 "clk" I L 8400 4800 50 
$EndSheet
Text Label 9250 3700 0    50   ~ 0
MDC
Text Label 9250 4700 0    50   ~ 0
MDC
Text Label 9250 4800 0    50   ~ 0
MDIO
$Comp
L SamacSys:DSC1004CI5-050.0000 Y1
U 1 1 5F17F321
P 5000 2350
F 0 "Y1" H 5650 2615 50  0000 C CNN
F 1 "DSC1004CI5-050.0000" H 5650 2524 50  0000 C CNN
F 2 "KiCad:DSC1004CI50500000" H 6150 2450 50  0001 L CNN
F 3 "https://ww1.microchip.com/downloads/en/DeviceDoc/20005529B.pdf" H 6150 2350 50  0001 L CNN
F 4 "MEMS OSCILLATOR LOW POWER -40C-8" H 6150 2250 50  0001 L CNN "Description"
F 5 "0.9" H 6150 2150 50  0001 L CNN "Height"
F 6 "579-1004CI50500000" H 6150 2050 50  0001 L CNN "Mouser Part Number"
F 7 "https://www.mouser.co.uk/ProductDetail/Microchip-Technology/DSC1004CI5-0500000?qs=PqoDHHvF648WBIrFEDJY9w%3D%3D" H 6150 1950 50  0001 L CNN "Mouser Price/Stock"
F 8 "Microchip" H 6150 1850 50  0001 L CNN "Manufacturer_Name"
F 9 "DSC1004CI5-050.0000" H 6150 1750 50  0001 L CNN "Manufacturer_Part_Number"
	1    5000 2350
	1    0    0    -1  
$EndComp
$Comp
L power:+3.3V #PWR05
U 1 1 5F180234
P 6300 2250
F 0 "#PWR05" H 6300 2100 50  0001 C CNN
F 1 "+3.3V" H 6315 2423 50  0000 C CNN
F 2 "" H 6300 2250 50  0001 C CNN
F 3 "" H 6300 2250 50  0001 C CNN
	1    6300 2250
	1    0    0    -1  
$EndComp
$Comp
L power:GND #PWR04
U 1 1 5F1809CB
P 5000 2550
F 0 "#PWR04" H 5000 2300 50  0001 C CNN
F 1 "GND" H 5005 2377 50  0000 C CNN
F 2 "" H 5000 2550 50  0001 C CNN
F 3 "" H 5000 2550 50  0001 C CNN
	1    5000 2550
	1    0    0    -1  
$EndComp
Text Label 6400 2450 0    50   ~ 0
clk
Wire Wire Line
	8400 3800 8300 3800
Wire Wire Line
	8400 4800 8300 4800
Text Label 8300 4800 2    50   ~ 0
clk
Text Label 8300 3800 2    50   ~ 0
clk
$Comp
L Device:C C1
U 1 1 5F181F7D
P 6750 2400
F 0 "C1" H 6865 2446 50  0000 L CNN
F 1 "100n" H 6865 2355 50  0000 L CNN
F 2 "Capacitors_SMD:C_0603_HandSoldering" H 6788 2250 50  0001 C CNN
F 3 "~" H 6750 2400 50  0001 C CNN
	1    6750 2400
	1    0    0    -1  
$EndComp
$Comp
L power:+3.3V #PWR07
U 1 1 5F182893
P 6750 2200
F 0 "#PWR07" H 6750 2050 50  0001 C CNN
F 1 "+3.3V" H 6765 2373 50  0000 C CNN
F 2 "" H 6750 2200 50  0001 C CNN
F 3 "" H 6750 2200 50  0001 C CNN
	1    6750 2200
	1    0    0    -1  
$EndComp
$Comp
L power:GND #PWR08
U 1 1 5F182C2B
P 6750 2600
F 0 "#PWR08" H 6750 2350 50  0001 C CNN
F 1 "GND" H 6755 2427 50  0000 C CNN
F 2 "" H 6750 2600 50  0001 C CNN
F 3 "" H 6750 2600 50  0001 C CNN
	1    6750 2600
	1    0    0    -1  
$EndComp
Wire Wire Line
	6750 2600 6750 2550
Wire Wire Line
	6750 2250 6750 2200
Wire Wire Line
	5300 4150 5200 4150
Text Label 5200 4150 2    50   ~ 0
clk
Wire Wire Line
	9150 3350 9250 3350
Wire Wire Line
	9150 3450 9250 3450
Wire Wire Line
	9150 3550 9250 3550
Wire Wire Line
	8400 3350 8300 3350
Wire Wire Line
	8400 3450 8300 3450
Wire Wire Line
	8400 3550 8300 3550
Wire Wire Line
	8400 4350 8300 4350
Wire Wire Line
	8400 4450 8300 4450
Wire Wire Line
	8400 4550 8300 4550
Wire Wire Line
	9150 4550 9250 4550
Wire Wire Line
	9150 4450 9250 4450
Wire Wire Line
	9150 4350 9250 4350
Text Label 9250 3350 0    50   ~ 0
P1_CRS_DV
Text Label 9250 3450 0    50   ~ 0
P1_RxD_0
Text Label 9250 3550 0    50   ~ 0
P1_RxD_1
Text Label 9250 4350 0    50   ~ 0
P2_CRS_DV
Text Label 9250 4450 0    50   ~ 0
P2_RxD_0
Text Label 9250 4550 0    50   ~ 0
P2_RxD_1
Text Label 8300 3350 2    50   ~ 0
P1_TX_EN
Text Label 8300 3450 2    50   ~ 0
P1_TxD_0
Text Label 8300 3550 2    50   ~ 0
P1_TxD_1
Text Label 8300 4350 2    50   ~ 0
P2_TX_EN
Text Label 8300 4450 2    50   ~ 0
P2_TxD_0
Text Label 8300 4550 2    50   ~ 0
P2_TxD_1
Wire Wire Line
	5300 4250 5200 4250
Text Label 5200 4250 2    50   ~ 0
P1_TxD_1
Wire Wire Line
	5300 4350 5200 4350
Wire Wire Line
	5300 4450 5200 4450
Wire Wire Line
	5300 4550 5200 4550
Wire Wire Line
	5300 4650 5200 4650
Wire Wire Line
	5300 4750 5200 4750
Wire Wire Line
	5300 4850 5200 4850
Wire Wire Line
	5300 4950 5200 4950
Wire Wire Line
	5300 5050 5200 5050
Wire Wire Line
	5300 5150 5200 5150
Wire Wire Line
	5300 5250 5200 5250
Text Label 5200 4350 2    50   ~ 0
P1_TxD_0
Text Label 5200 4450 2    50   ~ 0
P1_TX_EN
Text Label 5200 4550 2    50   ~ 0
P1_RxD_1
Text Label 5200 4650 2    50   ~ 0
P1_RxD_0
Text Label 5200 4750 2    50   ~ 0
P1_CRS_DV
Text Label 5200 4850 2    50   ~ 0
P2_TxD_1
Text Label 5200 4950 2    50   ~ 0
P2_TxD_0
Text Label 5200 5050 2    50   ~ 0
P2_TX_EN
Text Label 5200 5150 2    50   ~ 0
P2_RxD_1
Text Label 5200 5250 2    50   ~ 0
P2_RxD_0
Wire Wire Line
	6300 5250 6400 5250
Text Label 6400 5250 0    50   ~ 0
P2_CRS_DV
Wire Wire Line
	6300 4550 6400 4550
Wire Wire Line
	6300 4650 6400 4650
Text Label 6400 4550 0    50   ~ 0
MDC
Text Label 6400 4650 0    50   ~ 0
MDIO
$Comp
L Connector:Conn_01x01_Male J2
U 1 1 5F19CEBF
P 6750 5350
F 0 "J2" H 6722 5282 50  0000 R CNN
F 1 "Conn_01x01_Male" H 6722 5373 50  0000 R CNN
F 2 "Socket_Strips:Socket_Strip_Straight_1x01_Pitch2.54mm" H 6750 5350 50  0001 C CNN
F 3 "~" H 6750 5350 50  0001 C CNN
	1    6750 5350
	-1   0    0    1   
$EndComp
$Comp
L Connector:Conn_01x04_Male J1
U 1 1 5F19EB13
P 6600 4950
F 0 "J1" H 6572 4832 50  0000 R CNN
F 1 "Conn_01x04_Male" H 6572 4923 50  0000 R CNN
F 2 "Socket_Strips:Socket_Strip_Straight_1x04_Pitch2.54mm" H 6600 4950 50  0001 C CNN
F 3 "~" H 6600 4950 50  0001 C CNN
	1    6600 4950
	-1   0    0    1   
$EndComp
$Comp
L Connector:Conn_01x02_Male J4
U 1 1 5F1A3E7F
P 7400 2350
F 0 "J4" H 7508 2531 50  0000 C CNN
F 1 "Conn_01x02_Male" H 7508 2440 50  0000 C CNN
F 2 "Socket_Strips:Socket_Strip_Straight_1x02_Pitch2.54mm" H 7400 2350 50  0001 C CNN
F 3 "~" H 7400 2350 50  0001 C CNN
	1    7400 2350
	1    0    0    -1  
$EndComp
$Comp
L power:GND #PWR011
U 1 1 5F1A5982
P 7650 2500
F 0 "#PWR011" H 7650 2250 50  0001 C CNN
F 1 "GND" H 7655 2327 50  0000 C CNN
F 2 "" H 7650 2500 50  0001 C CNN
F 3 "" H 7650 2500 50  0001 C CNN
	1    7650 2500
	1    0    0    -1  
$EndComp
Wire Wire Line
	7600 2450 7650 2450
Wire Wire Line
	7650 2450 7650 2500
Wire Wire Line
	6300 4750 6400 4750
Wire Wire Line
	6300 4850 6400 4850
Wire Wire Line
	6300 4950 6400 4950
Wire Wire Line
	6300 5050 6400 5050
$Comp
L power:GND #PWR01
U 1 1 5F1AD288
P 5800 5750
F 0 "#PWR01" H 5800 5500 50  0001 C CNN
F 1 "GND" H 5805 5577 50  0000 C CNN
F 2 "" H 5800 5750 50  0001 C CNN
F 3 "" H 5800 5750 50  0001 C CNN
	1    5800 5750
	1    0    0    -1  
$EndComp
$Comp
L power:GND #PWR010
U 1 1 5F1AD72C
P 6800 4350
F 0 "#PWR010" H 6800 4100 50  0001 C CNN
F 1 "GND" H 6805 4177 50  0000 C CNN
F 2 "" H 6800 4350 50  0001 C CNN
F 3 "" H 6800 4350 50  0001 C CNN
	1    6800 4350
	1    0    0    -1  
$EndComp
Wire Wire Line
	6800 4350 6800 4250
Wire Wire Line
	5900 3550 5900 3300
Wire Wire Line
	6000 3550 6000 3300
$Comp
L power:+3.3V #PWR02
U 1 1 5F1B15BE
P 5900 3300
F 0 "#PWR02" H 5900 3150 50  0001 C CNN
F 1 "+3.3V" H 5915 3473 50  0000 C CNN
F 2 "" H 5900 3300 50  0001 C CNN
F 3 "" H 5900 3300 50  0001 C CNN
	1    5900 3300
	1    0    0    -1  
$EndComp
$Comp
L power:+5V #PWR03
U 1 1 5F1B1CF4
P 6100 3300
F 0 "#PWR03" H 6100 3150 50  0001 C CNN
F 1 "+5V" H 6115 3473 50  0000 C CNN
F 2 "" H 6100 3300 50  0001 C CNN
F 3 "" H 6100 3300 50  0001 C CNN
	1    6100 3300
	1    0    0    -1  
$EndComp
Wire Wire Line
	6000 3300 6100 3300
$Comp
L Connector:Conn_01x04_Male J3
U 1 1 5F1A180F
P 7000 4150
F 0 "J3" H 6972 4032 50  0000 R CNN
F 1 "Conn_01x04_Male" H 6972 4123 50  0000 R CNN
F 2 "Socket_Strips:Socket_Strip_Straight_1x04_Pitch2.54mm" H 7000 4150 50  0001 C CNN
F 3 "~" H 7000 4150 50  0001 C CNN
	1    7000 4150
	-1   0    0    1   
$EndComp
Wire Wire Line
	6300 3950 6800 3950
Wire Wire Line
	6800 4050 6750 4050
Wire Wire Line
	6750 4050 6750 3850
$Comp
L power:+3.3V #PWR09
U 1 1 5F1BB035
P 6750 3850
F 0 "#PWR09" H 6750 3700 50  0001 C CNN
F 1 "+3.3V" H 6765 4023 50  0000 C CNN
F 2 "" H 6750 3850 50  0001 C CNN
F 3 "" H 6750 3850 50  0001 C CNN
	1    6750 3850
	1    0    0    -1  
$EndComp
$Comp
L power:+5V #PWR06
U 1 1 5F1BB672
P 6550 3850
F 0 "#PWR06" H 6550 3700 50  0001 C CNN
F 1 "+5V" H 6565 4023 50  0000 C CNN
F 2 "" H 6550 3850 50  0001 C CNN
F 3 "" H 6550 3850 50  0001 C CNN
	1    6550 3850
	1    0    0    -1  
$EndComp
Wire Wire Line
	6550 3850 6550 4150
Wire Wire Line
	6550 4150 6800 4150
NoConn ~ 5000 2350
NoConn ~ 5700 3550
NoConn ~ 5300 3950
NoConn ~ 5300 4050
NoConn ~ 6300 4150
NoConn ~ 6300 4350
NoConn ~ 5700 5650
Wire Wire Line
	6300 5350 6550 5350
$Comp
L MCU_Module:Arduino_UNO_R3 A1
U 1 1 5F19666D
P 5800 4550
F 0 "A1" H 5800 5731 50  0000 C CNN
F 1 "Arduino_UNO_R3" H 5800 5640 50  0000 C CNN
F 2 "Modules:Arduino_UNO_R3" H 5800 4550 50  0001 C CIN
F 3 "https://www.arduino.cc/en/Main/arduinoBoardUno" H 5800 4550 50  0001 C CNN
	1    5800 4550
	1    0    0    -1  
$EndComp
Wire Wire Line
	5800 5750 5800 5700
Wire Wire Line
	5800 5700 5900 5700
Wire Wire Line
	5900 5700 5900 5650
Wire Wire Line
	5800 5650 5800 5700
Connection ~ 5800 5700
Wire Wire Line
	8400 3700 8300 3700
Wire Wire Line
	8400 4700 8300 4700
Wire Wire Line
	7600 2350 7700 2350
Text Label 7700 2350 0    50   ~ 0
RST
Text Label 8300 3700 2    50   ~ 0
RST
Text Label 8300 4700 2    50   ~ 0
RST
$Comp
L Device:R R20
U 1 1 5F13E982
P 8550 2450
F 0 "R20" H 8620 2496 50  0000 L CNN
F 1 "1k5" H 8620 2405 50  0000 L CNN
F 2 "Resistors_SMD:R_0603_HandSoldering" V 8480 2450 50  0001 C CNN
F 3 "~" H 8550 2450 50  0001 C CNN
	1    8550 2450
	1    0    0    -1  
$EndComp
$Comp
L power:+3.3V #PWR0103
U 1 1 5F13ED00
P 8550 2200
F 0 "#PWR0103" H 8550 2050 50  0001 C CNN
F 1 "+3.3V" H 8565 2373 50  0000 C CNN
F 2 "" H 8550 2200 50  0001 C CNN
F 3 "" H 8550 2200 50  0001 C CNN
	1    8550 2200
	1    0    0    -1  
$EndComp
Wire Wire Line
	8550 2200 8550 2300
Wire Wire Line
	8550 2600 8550 2650
Text Label 8550 2650 0    50   ~ 0
RST
Wire Wire Line
	6300 2250 6300 2350
Wire Wire Line
	6300 2450 6400 2450
Wire Wire Line
	5000 2450 5000 2550
$Comp
L Device:R R21
U 1 1 5F5701DF
P 9050 2450
F 0 "R21" H 9120 2496 50  0000 L CNN
F 1 "2k2" H 9120 2405 50  0000 L CNN
F 2 "Resistors_SMD:R_0603_HandSoldering" V 8980 2450 50  0001 C CNN
F 3 "~" H 9050 2450 50  0001 C CNN
	1    9050 2450
	1    0    0    -1  
$EndComp
$Comp
L power:+3.3V #PWR0104
U 1 1 5F5707B5
P 9050 2200
F 0 "#PWR0104" H 9050 2050 50  0001 C CNN
F 1 "+3.3V" H 9065 2373 50  0000 C CNN
F 2 "" H 9050 2200 50  0001 C CNN
F 3 "" H 9050 2200 50  0001 C CNN
	1    9050 2200
	1    0    0    -1  
$EndComp
Wire Wire Line
	9050 2200 9050 2300
Wire Wire Line
	9050 2600 9050 2650
Text Label 9050 2650 0    50   ~ 0
P2_RxD_0
$EndSCHEMATC
